Chapter 2 Foundamental of machine learning | Computer vision with R and keras
…
## Warning: `data_frame()` is deprecated as of tibble 1.1.0.
## Please use `tibble()` instead.
## This warning is displayed once every 8 hours.
## Call `lifecycle::last_warnings()` to see where this warning was generated.

# Get the probality threshold for specificity = 0.6
roc.data %>% filter(specificity >= 0.6)

## # A tibble: 45 x 3
##    thresholds sensitivity specificity
##         <dbl>       <dbl>       <dbl>
##  1      0.180       0.923       0.615
##  2      0.186       0.923       0.635
##  3      0.193       0.885       0.635
##  4      0.208       0.846       0.635
##  5      0.227       0.846       0.654
##  6      0.237       0.846       0.673
##  7      0.249       0.846       0.692
##  8      0.267       0.808       0.692
##  9      0.278       0.808       0.712
## 10      0.284       0.808       0.731
## # ... with 35 more rows
…
